[
  {
    "request": {
      "body": "",
      "headers": {
        "Authorization": "Basic BASIC_AUTH_PLACEHOLDER",
        "Accept": "application/json"
      },
      "method": "get",
      "options": [],
      "request_body": "",
      "url": "https://cloud.docker.com/api/infra/v1/region/?limit=2"
    },
    "response": {
      "body": "{\"meta\": {\"limit\": 2, \"next\": \"/api/infra/v1/region/?limit=2&offset=2\", \"offset\": 0, \"previous\": null, \"total_count\": 52}, \"objects\": [{\"availability_zones\": [], \"available\": true, \"label\": \"Amsterdam 3\", \"name\": \"ams03\", \"node_types\": [\"/api/infra/v1/nodetype/softlayer/1x2.0GHzCore-1GB/\", \"/api/infra/v1/nodetype/softlayer/1x2.0GHzCore-2GB/\", \"/api/infra/v1/nodetype/softlayer/1x2.0GHzCore-4GB/\", \"/api/infra/v1/nodetype/softlayer/1x2.0GHzCore-6GB/\", \"/api/infra/v1/nodetype/softlayer/1x2.0GHzCore-8GB/\", \"/api/infra/v1/nodetype/softlayer/1x2.0GHzCore-12GB/\", \"/api/infra/v1/nodetype/softlayer/1x2.0GHzCore-16GB/\", \"/api/infra/v1/nodetype/softlayer/1x2.0GHzCore-32GB/\", \"/api/infra/v1/nodetype/softlayer/1x2.0GHzCore-48GB/\", \"/api/infra/v1/nodetype/softlayer/1x2.0GHzCore-64GB/\", \"/api/infra/v1/nodetype/softlayer/2x2.0GHzCores-1GB/\", \"/api/infra/v1/nodetype/softlayer/2x2.0GHzCores-2GB/\", \"/api/infra/v1/nodetype/softlayer/2x2.0GHzCores-4GB/\", \"/api/infra/v1/nodetype/softlayer/2x2.0GHzCores-6GB/\", \"/api/infra/v1/nodetype/softlayer/2x2.0GHzCores-8GB/\", \"/api/infra/v1/nodetype/softlayer/2x2.0GHzCores-12GB/\", \"/api/infra/v1/nodetype/softlayer/2x2.0GHzCores-16GB/\", \"/api/infra/v1/nodetype/softlayer/2x2.0GHzCores-32GB/\", \"/api/infra/v1/nodetype/softlayer/2x2.0GHzCores-48GB/\", \"/api/infra/v1/nodetype/softlayer/2x2.0GHzCores-64GB/\", \"/api/infra/v1/nodetype/softlayer/4x2.0GHzCores-1GB/\", \"/api/infra/v1/nodetype/softlayer/4x2.0GHzCores-2GB/\", \"/api/infra/v1/nodetype/softlayer/4x2.0GHzCores-4GB/\", \"/api/infra/v1/nodetype/softlayer/4x2.0GHzCores-6GB/\", \"/api/infra/v1/nodetype/softlayer/4x2.0GHzCores-8GB/\", \"/api/infra/v1/nodetype/softlayer/4x2.0GHzCores-12GB/\", \"/api/infra/v1/nodetype/softlayer/4x2.0GHzCores-16GB/\", \"/api/infra/v1/nodetype/softlayer/4x2.0GHzCores-32GB/\", \"/api/infra/v1/nodetype/softlayer/4x2.0GHzCores-48GB/\", \"/api/infra/v1/nodetype/softlayer/4x2.0GHzCores-64GB/\", \"/api/infra/v1/nodetype/softlayer/8x2.0GHzCores-1GB/\", \"/api/infra/v1/nodetype/softlayer/8x2.0GHzCores-2GB/\", \"/api/infra/v1/nodetype/softlayer/8x2.0GHzCores-4GB/\", \"/api/infra/v1/nodetype/softlayer/8x2.0GHzCores-6GB/\", \"/api/infra/v1/nodetype/softlayer/8x2.0GHzCores-8GB/\", \"/api/infra/v1/nodetype/softlayer/8x2.0GHzCores-12GB/\", \"/api/infra/v1/nodetype/softlayer/8x2.0GHzCores-16GB/\", \"/api/infra/v1/nodetype/softlayer/8x2.0GHzCores-32GB/\", \"/api/infra/v1/nodetype/softlayer/8x2.0GHzCores-48GB/\", \"/api/infra/v1/nodetype/softlayer/8x2.0GHzCores-64GB/\", \"/api/infra/v1/nodetype/softlayer/12x2.0GHzCores-1GB/\", \"/api/infra/v1/nodetype/softlayer/12x2.0GHzCores-2GB/\", \"/api/infra/v1/nodetype/softlayer/12x2.0GHzCores-4GB/\", \"/api/infra/v1/nodetype/softlayer/12x2.0GHzCores-6GB/\", \"/api/infra/v1/nodetype/softlayer/12x2.0GHzCores-8GB/\", \"/api/infra/v1/nodetype/softlayer/12x2.0GHzCores-12GB/\", \"/api/infra/v1/nodetype/softlayer/12x2.0GHzCores-16GB/\", \"/api/infra/v1/nodetype/softlayer/12x2.0GHzCores-32GB/\", \"/api/infra/v1/nodetype/softlayer/12x2.0GHzCores-48GB/\", \"/api/infra/v1/nodetype/softlayer/12x2.0GHzCores-64GB/\", \"/api/infra/v1/nodetype/softlayer/16x2.0GHzCores-1GB/\", \"/api/infra/v1/nodetype/softlayer/16x2.0GHzCores-2GB/\", \"/api/infra/v1/nodetype/softlayer/16x2.0GHzCores-4GB/\", \"/api/infra/v1/nodetype/softlayer/16x2.0GHzCores-6GB/\", \"/api/infra/v1/nodetype/softlayer/16x2.0GHzCores-8GB/\", \"/api/infra/v1/nodetype/softlayer/16x2.0GHzCores-12GB/\", \"/api/infra/v1/nodetype/softlayer/16x2.0GHzCores-16GB/\", \"/api/infra/v1/nodetype/softlayer/16x2.0GHzCores-32GB/\", \"/api/infra/v1/nodetype/softlayer/16x2.0GHzCores-48GB/\", \"/api/infra/v1/nodetype/softlayer/16x2.0GHzCores-64GB/\", \"/api/infra/v1/nodetype/softlayer/Private1x2.0GHzCore-1GB/\", \"/api/infra/v1/nodetype/softlayer/Private1x2.0GHzCore-2GB/\", \"/api/infra/v1/nodetype/softlayer/Private1x2.0GHzCore-4GB/\", \"/api/infra/v1/nodetype/softlayer/Private1x2.0GHzCore-6GB/\", \"/api/infra/v1/nodetype/softlayer/Private1x2.0GHzCore-8GB/\", \"/api/infra/v1/nodetype/softlayer/Private1x2.0GHzCore-12GB/\", \"/api/infra/v1/nodetype/softlayer/Private1x2.0GHzCore-16GB/\", \"/api/infra/v1/nodetype/softlayer/Private1x2.0GHzCore-32GB/\", \"/api/infra/v1/nodetype/softlayer/Private1x2.0GHzCore-48GB/\", \"/api/infra/v1/nodetype/softlayer/Private1x2.0GHzCore-64GB/\", \"/api/infra/v1/nodetype/softlayer/Private2x2.0GHzCores-1GB/\", \"/api/infra/v1/nodetype/softlayer/Private2x2.0GHzCores-2GB/\", \"/api/infra/v1/nodetype/softlayer/Private2x2.0GHzCores-4GB/\", \"/api/infra/v1/nodetype/softlayer/Private2x2.0GHzCores-6GB/\", \"/api/infra/v1/nodetype/softlayer/Private2x2.0GHzCores-8GB/\", \"/api/infra/v1/nodetype/softlayer/Private2x2.0GHzCores-12GB/\", \"/api/infra/v1/nodetype/softlayer/Private2x2.0GHzCores-16GB/\", \"/api/infra/v1/nodetype/softlayer/Private2x2.0GHzCores-32GB/\", \"/api/infra/v1/nodetype/softlayer/Private2x2.0GHzCores-48GB/\", \"/api/infra/v1/nodetype/softlayer/Private2x2.0GHzCores-64GB/\", \"/api/infra/v1/nodetype/softlayer/Private4x2.0GHzCores-1GB/\", \"/api/infra/v1/nodetype/softlayer/Private4x2.0GHzCores-2GB/\", \"/api/infra/v1/nodetype/softlayer/Private4x2.0GHzCores-4GB/\", \"/api/infra/v1/nodetype/softlayer/Private4x2.0GHzCores-6GB/\", \"/api/infra/v1/nodetype/softlayer/Private4x2.0GHzCores-8GB/\", \"/api/infra/v1/nodetype/softlayer/Private4x2.0GHzCores-12GB/\", \"/api/infra/v1/nodetype/softlayer/Private4x2.0GHzCores-16GB/\", \"/api/infra/v1/nodetype/softlayer/Private4x2.0GHzCores-32GB/\", \"/api/infra/v1/nodetype/softlayer/Private4x2.0GHzCores-48GB/\", \"/api/infra/v1/nodetype/softlayer/Private4x2.0GHzCores-64GB/\", \"/api/infra/v1/nodetype/softlayer/Private8x2.0GHzCores-1GB/\", \"/api/infra/v1/nodetype/softlayer/Private8x2.0GHzCores-2GB/\", \"/api/infra/v1/nodetype/softlayer/Private8x2.0GHzCores-4GB/\", \"/api/infra/v1/nodetype/softlayer/Private8x2.0GHzCores-6GB/\", \"/api/infra/v1/nodetype/softlayer/Private8x2.0GHzCores-8GB/\", \"/api/infra/v1/nodetype/softlayer/Private8x2.0GHzCores-12GB/\", \"/api/infra/v1/nodetype/softlayer/Private8x2.0GHzCores-16GB/\", \"/api/infra/v1/nodetype/softlayer/Private8x2.0GHzCores-32GB/\", \"/api/infra/v1/nodetype/softlayer/Private8x2.0GHzCores-48GB/\", \"/api/infra/v1/nodetype/softlayer/Private8x2.0GHzCores-64GB/\"], \"provider\": \"/api/infra/v1/provider/softlayer/\", \"resource_uri\": \"/api/infra/v1/region/softlayer/ams03/\"}, {\"availability_zones\": [], \"available\": true, \"label\": \"Amsterdam 2\", \"name\": \"ams2\", \"node_types\": [\"/api/infra/v1/nodetype/digitalocean/512mb/\", \"/api/infra/v1/nodetype/digitalocean/1gb/\", \"/api/infra/v1/nodetype/digitalocean/2gb/\", \"/api/infra/v1/nodetype/digitalocean/4gb/\", \"/api/infra/v1/nodetype/digitalocean/8gb/\", \"/api/infra/v1/nodetype/digitalocean/16gb/\", \"/api/infra/v1/nodetype/digitalocean/32gb/\", \"/api/infra/v1/nodetype/digitalocean/48gb/\", \"/api/infra/v1/nodetype/digitalocean/64gb/\"], \"provider\": \"/api/infra/v1/provider/digitalocean/\", \"resource_uri\": \"/api/infra/v1/region/digitalocean/ams2/\"}]}",
      "headers": {
        "Date": "Sun, 03 Apr 2016 23:18:08 GMT",
        "Content-Type": "application/json",
        "Content-Length": "6791",
        "Set-Cookie": "dockerid_device=\"blatyo:1fb2be25028d8635701a4af:1amrHT:nJysQkgEjKzSDEa_oslY_FSfZuw\"; httponly; Path=/; secure",
        "Cache-Control": "must-revalidate, max-age=3600",
        "Cache-control": "no-cache=\"set-cookie\"",
        "Strict-Transport-Security": "max-age=31536000; includeSubdomains",
        "Vary": "Accept, Authorization, Cookie",
        "X-Content-Type-Options": "nosniff",
        "X-Frame-Options": "deny",
        "X-Tutum-Served-By": "bc0784b54815",
        "X-XSS-Protection": "1; mode=block",
        "Server": "nginx"
      },
      "status_code": 200,
      "type": "ok"
    }
  }
]